<?xml version="1.0" encoding="UTF-8"?>
<svg width="20px" height="20px" viewBox="0 0 20 20" version="1.1" xmlns="http://www.w3.org/2000/svg" xmlns:xlink="http://www.w3.org/1999/xlink">
    <title>EE7BA160-21A0-4AC0-941F-D466C8F08EA6</title>
    <g id="Visuals" stroke="none" stroke-width="1" fill="none" fill-rule="evenodd">
        <g id="Lore-modal-district-detail" transform="translate(-884.000000, -671.000000)">
            <g id="1681350-copy" transform="translate(884.000000, 671.000000)">
                <path d="M10,0 C4.4771525,0 0,4.4771525 0,10 C0,15.5228475 4.4771525,20 10,20 C15.5228475,20 20,15.5228475 20,10 C20,7.3478351 18.9464316,4.80429597 17.0710678,2.92893219 C15.195704,1.0535684 12.6521649,0 10,0 Z" id="Shape" fill="#FFC049" fill-rule="nonzero"></path>
                <text id="2" font-family="Inter-Medium, Inter" font-size="12" font-weight="400" fill="#121422">
                    <tspan x="6.3203125" y="14">2</tspan>
                </text>
            </g>
        </g>
    </g>
</svg>