<?xml version="1.0" encoding="UTF-8"?>
<svg width="796px" height="70px" viewBox="0 0 796 70" version="1.1" xmlns="http://www.w3.org/2000/svg" xmlns:xlink="http://www.w3.org/1999/xlink">
    <title>AEF72DD5-1111-44A6-8A31-F2B443AB6BB2</title>
    <defs>
        <filter color-interpolation-filters="auto" id="filter-1">
            <feColorMatrix in="SourceGraphic" type="matrix" values="0 0 0 0 1.000000 0 0 0 0 1.000000 0 0 0 0 1.000000 0 0 0 1.000000 0"></feColorMatrix>
        </filter>
        <linearGradient x1="-3.20581502%" y1="49.5418039%" x2="104.752895%" y2="50.4179677%" id="linearGradient-2">
            <stop stop-color="#FF36AC" offset="0%"></stop>
            <stop stop-color="#BD40FF" offset="52.1473085%"></stop>
            <stop stop-color="#8246FF" offset="100%"></stop>
        </linearGradient>
    </defs>
    <g id="Visuals" stroke="none" stroke-width="1" fill="none" fill-rule="evenodd">
        <g id="Landing" transform="translate(-322.000000, -224.000000)">
            <g id="Logo-full" transform="translate(160.000000, 29.000000)" filter="url(#filter-1)">
                <g transform="translate(162.000000, 195.000000)" id="Group-20" fill="url(#linearGradient-2)" fill-rule="nonzero">
                    <path d="M145.3348,0.0415698713 L145.3348,70 L130.820385,70 L130.820385,55.5652206 L106.450247,33.0362616 L92.5235437,33.0362616 L92.5235437,18.5250318 L112.048642,18.5250318 L112.086867,18.4820285 L130.820385,35.7996228 L130.820385,0.0415698713 L145.3348,0.0415698713 Z M425.045404,0.0415698713 L425.045404,0.0431625867 L441.829438,0.0431625867 L481.825707,37.0053083 L481.825707,37.006901 L481.8273,37.006901 L481.825707,37.0084937 L481.825707,51.5197235 L429.01445,51.5197235 L429.01445,37.0053083 L460.445096,37.0053083 L436.157779,14.5559851 L425.045404,14.5559851 L425.045404,70 L410.532581,70 L410.532581,0.0415698713 L425.045404,0.0415698713 Z M206.610065,18.5243947 L206.610065,33.0372172 L188.55345,33.0372172 L167.801962,55.4865404 L219.380456,55.4865404 L219.380456,69.9993629 L148.085738,69.9993629 L148.085738,55.4865404 L182.220814,18.5243947 L206.610065,18.5243947 Z M395.030523,18.5243947 L395.030523,33.0372172 L376.973909,33.0372172 L356.22242,55.4865404 L407.802508,55.4865404 L407.802508,69.9993629 L336.506197,69.9993629 L336.506197,55.4865404 L370.641273,18.5243947 L395.030523,18.5243947 Z M88.5549748,0.0409327851 L88.5549748,69.9993629 L74.0405596,69.9993629 L74.0405596,0.0409327851 L88.5549748,0.0409327851 Z M276.880508,18.5229613 L276.880508,37.0064232 L294.070685,37.0064232 L314.09271,55.4866997 L333.754781,55.4866997 L333.754781,69.9995222 L308.409901,69.9995222 L288.422916,51.5192457 L276.880508,51.5192457 L276.880508,69.9995222 L262.366092,69.9995222 L262.366092,18.5229613 L276.880508,18.5229613 Z M49.310468,0.0430033151 L49.310468,14.5558258 L49.3088753,14.5558258 L49.3184316,14.5637894 L40.580795,24.0165551 L40.580795,69.9998407 L26.0679725,69.9998407 L26.0679725,18.5232798 L26.2702474,18.5232798 L26.0679725,18.3353394 L29.5639828,14.5558258 L0,14.5558258 L0,0.0430033151 L49.310468,0.0430033151 Z M721.184707,0.0409327851 L721.184707,69.9993629 L706.671885,69.9993629 L706.671885,0.0409327851 L721.184707,0.0409327851 Z M795.25298,0.0516039781 L795.25298,14.5644265 L789.664142,14.5644265 L765.407087,40.8044123 L778.992949,55.5019898 L795.219533,55.5019898 L795.219533,69.9813652 L772.577491,69.9813652 L755.521102,51.499496 L738.434452,69.9829579 L738.428081,69.9797725 L738.428081,69.9909215 L723.916851,69.9909215 L723.916851,0.0675311319 L738.428081,0.0675311319 L738.428081,48.600754 L783.270982,0.0516039781 L795.25298,0.0516039781 Z M555.873115,0.00143344384 L555.873115,69.9598636 L508.66981,69.9598636 L484.578397,47.6220304 L484.583175,47.6172523 L484.578397,47.6172523 L484.578397,36.9635791 L499.092812,36.9635791 L499.092812,41.2750597 L514.42429,55.4470411 L541.3587,55.4470411 L541.3587,0.00143344384 L555.873115,0.00143344384 Z M647.184603,36.9642162 L647.184603,41.274104 L662.516081,55.4476782 L703.732369,55.4476782 L703.732369,69.9589079 L656.763193,69.9589079 L632.670187,47.6210748 L632.674965,47.6178894 L632.670187,47.6178894 L632.670187,36.9642162 L647.184603,36.9642162 Z M594.277624,0 L614.126043,18.4818692 L614.126043,32.993099 L576.792795,32.993099 L576.792795,18.4818692 L592.805955,18.4818692 L573.131,0.268 L573.13162,55.4456076 L608.399116,55.4456076 L599.933834,47.620597 L599.949761,47.6046698 L588.437614,36.9621457 L609.787964,36.9621457 L629.913516,55.4456076 L629.913516,69.9584301 L558.625168,69.9584301 L558.618797,0 L594.277624,0 Z M333.659377,0.0430033151 L333.659377,14.5558258 L307.640779,42.8711197 L296.982328,33.0201752 L314.049866,14.5558258 L262.364659,14.5558258 L262.364659,0.0430033151 L333.659377,0.0430033151 Z M647.279528,0.00111490076 L647.279528,32.9958066 L632.765113,32.9958066 L632.765113,0.00111490076 L647.279528,0.00111490076 Z M499.18726,0.00111490076 L499.18726,32.9958066 L484.674438,32.9958066 L484.674438,0.00111490076 L499.18726,0.00111490076 Z M71.2947183,0.0425255005 L71.2947183,14.555348 L53.3177399,14.555348 L53.3177399,0.0425255005 L71.2947183,0.0425255005 Z M219.379023,0.0425255005 L219.379023,14.555348 L148.085897,14.555348 L148.085897,0.0425255005 L219.379023,0.0425255005 Z M407.80203,0.0425255005 L407.80203,14.555348 L336.507312,14.555348 L336.507312,0.0425255005 L407.80203,0.0425255005 Z" id="Combined-Shape"></path>
                </g>
            </g>
        </g>
    </g>
</svg>