<?xml version="1.0" encoding="UTF-8"?>
<svg width="47px" height="29px" viewBox="0 0 47 29" version="1.1" xmlns="http://www.w3.org/2000/svg" xmlns:xlink="http://www.w3.org/1999/xlink">
    <title>0FCCB04E-5F9A-4E96-90AE-5B788AB45DC9</title>
    <defs>
        <filter color-interpolation-filters="auto" id="filter-1">
            <feColorMatrix in="SourceGraphic" type="matrix" values="0 0 0 0 1.000000 0 0 0 0 0.752941 0 0 0 0 0.286275 0 0 0 1.000000 0"></feColorMatrix>
        </filter>
    </defs>
    <g id="Visuals" stroke="none" stroke-width="1" fill="none" fill-rule="evenodd">
        <g id="1285847" transform="translate(-224.000000, -427.000000)" filter="url(#filter-1)">
            <g transform="translate(247.607262, 441.737845) rotate(90.000000) translate(-247.607262, -441.737845) translate(233.607262, 418.392738)">
                <path d="M20.2457781,29.0020966 C20.6604032,27.9927412 21.0036961,26.9643384 21.2900335,25.9252115 C23.5577995,26.7063339 24.3256943,27.5055322 26.0505009,29.3378135 C26.2422457,29.5009918 26.6536199,30.2257286 27.4106785,29.9216609 C27.766461,29.7802577 28,29.4363389 28,29.0536433 L28,26.9983137 C28,21.7215104 25.5045055,17.5073747 22.1809099,16.8774547 C21.9290148,13.4160525 21.0100203,10.0011712 19.4147064,6.83414007 C18.2150822,4.42759589 16.6368726,2.21627159 14.7247678,0.263119931 C14.5672318,0.10267867 14.3307315,-0.00982171462 14.0219837,0.000678196721 C13.778524,0.00940321201 13.5653964,0.0837526732 13.3892146,0.263119931 C11.4752881,2.21900866 9.89707857,4.42987523 8.70110691,6.82912365 C7.13458366,9.923001 6.19871834,13.3543048 5.9389483,16.8536805 C-0.692053986,17.9521543 0.035018166,28.9601903 0.0145508121,29.0536339 C0.0145508121,29.4363296 0.248089765,29.7802484 0.603872348,29.9216515 C1.3794085,30.2331364 1.81564059,29.4437935 1.96588087,29.3368887 C3.71149113,27.4819822 4.47391173,26.6862589 6.80839514,25.8956081 C7.09627393,26.9472153 7.44190224,27.9850905 7.86000236,29.002545 C7.97506233,29.2822686 8.2175505,29.4780583 8.50263617,29.5481947 L6.60108728,32.7040533 C6.42684853,32.9927822 6.42228051,33.3522173 6.58740189,33.6455049 C6.75342941,33.9387924 7.06451263,34.1203363 7.40113568,34.1203363 L10.3325166,34.1203363 C9.07160245,38.4553424 10.2002962,43.1552017 13.387393,46.4098659 C13.7544041,46.7834909 14.3555894,46.7838365 14.7229462,46.4098659 C17.9092489,43.154744 19.0378866,38.4552863 17.7769164,34.1203363 L20.7037387,34.1203363 C21.0403617,34.1203363 21.3514449,33.9387924 21.5174724,33.6455049 C21.6825938,33.3522173 21.6780351,32.9927822 21.5037871,32.7040533 L19.6022288,29.5482601 C19.8876601,29.4782451 20.130606,29.2821004 20.2457781,29.0020966 Z M22.2519618,18.8206296 C24.3834625,19.5811726 26.0546672,22.8746043 26.1289606,26.7301082 C24.9525409,25.5814609 23.8430627,24.8040938 21.7234818,24.096069 C22.0747524,22.3521122 22.2515601,20.5858011 22.2519618,18.8206296 Z M1.88559951,26.7310237 C1.96097655,22.8187324 3.68189707,19.4918859 5.85776081,18.79537 C5.85776081,18.8075141 5.85667719,18.819602 5.85667719,18.8317461 C5.85667719,20.6050727 6.02938392,22.3545597 6.37022001,24.0685301 C4.19596301,24.7838599 3.07707789,25.5667479 1.88559951,26.7310237 Z M14.0569958,2.27922435 C15.4500183,3.81826473 16.4828677,5.34573093 17.3492879,6.94213782 C15.3409463,8.09757646 12.7726998,8.09757646 10.7643582,6.94202572 C11.7356373,5.15415425 12.875214,3.58551981 14.0569958,2.27922435 Z M14.0551742,44.3531818 C11.7453245,41.5000831 11.0675198,37.6343782 12.2835664,34.1203456 L15.8258759,34.1203456 C17.0418946,37.6343689 16.3641085,41.5000831 14.0551742,44.3531818 Z M9.05506789,32.252034 L10.6643007,29.5813853 L17.4405829,29.5813853 L19.0498158,32.252034 C16.8941859,32.252034 12.7560531,32.252034 9.05506789,32.252034 Z M18.7469345,27.7130736 C18.5712664,27.7130736 9.10540955,27.7130736 9.35793989,27.7130736 C8.27416968,24.8773129 7.72498882,21.8923861 7.72498882,18.8317554 C7.72498882,15.298283 8.48895078,11.7901823 9.92855962,8.6103813 C11.1911833,9.31664046 12.5974988,9.69135838 14.0569958,9.69135838 C15.5169039,9.69135838 16.9236024,9.31636021 18.1865157,8.60975541 C20.910131,14.6323794 21.1198397,21.5042818 18.7469345,27.7130736 Z" id="Shape" fill="#010101" fill-rule="nonzero"></path>
                <path d="M14.0524372,11.5304683 C12.118445,11.5304683 10.5447942,13.1287528 10.5447942,15.0928528 C10.5447942,17.0569528 12.118445,18.6552373 14.0524372,18.6552373 C15.9864293,18.6552373 17.5600801,17.0569528 17.5600801,15.0928528 C17.5600801,13.1287528 15.9864293,11.5304683 14.0524372,11.5304683 Z M14.0524372,16.7869163 C13.1483892,16.7869163 12.4131058,16.0269993 12.4131058,15.0928435 C12.4131058,14.1586876 13.1483892,13.3987706 14.0524372,13.3987706 C14.9564851,13.3987706 15.6917685,14.1586876 15.6917685,15.0928435 C15.6917685,16.0269993 14.9564851,16.7869163 14.0524372,16.7869163 Z" id="Shape" fill="#010101" fill-rule="nonzero"></path>
            </g>
        </g>
    </g>
</svg>