<?xml version="1.0" encoding="UTF-8"?>
<svg width="30px" height="25px" viewBox="0 0 30 25" version="1.1" xmlns="http://www.w3.org/2000/svg" xmlns:xlink="http://www.w3.org/1999/xlink">
    <title>1AD8B69A-7341-42C3-A6C4-583EC5060FED</title>
    <g id="Visuals" stroke="none" stroke-width="1" fill="none" fill-rule="evenodd">
        <g id="Lore-v2-character-detail" transform="translate(-771.000000, -477.000000)" fill-rule="nonzero">
            <g id="Group-6" transform="translate(246.000000, 314.000000)">
                <g id="Group-21" transform="translate(388.000000, 111.500000)">
                    <g id="Group-4" transform="translate(137.000000, 49.000000)">
                        <g id="2391257" transform="translate(0.000000, 3.000000)">
                            <path d="M29.5647638,3.4842837 C29.4558177,2.41643883 28.8709025,1.45474549 27.972815,0.86686726 C25.4420752,-0.801447747 20.8689839,0.441969361 20.6756018,0.495445423 C20.4620065,0.554766974 20.3142111,0.749278138 20.3142931,0.970958119 L20.3142931,4.66430899 C20.315435,5.70123148 21.1557419,6.54153844 22.1926644,6.54268033 L22.5793299,6.54268033 C23.1125404,6.54325474 23.6321429,6.37438997 24.0631426,6.06045846 C23.8873228,9.14031458 21.7256369,11.4605048 20.8584761,12.2727095 C17.7906077,8.86247585 14.2530478,10.3128414 13.0773145,10.9467103 C8.30260263,5.19980959 0.401021133,8.07399993 0.320067058,8.1034019 C0.127553661,8.17568844 0,8.35976016 0,8.56539758 L0,21.1749445 C0,21.3398968 0.0824274316,21.4939383 0.219676111,21.5854374 C2.47006452,23.1427364 5.13820647,23.9843112 7.87484346,24 C10.8606641,23.9476462 13.7671818,23.0302395 16.2420219,21.3590028 L16.936668,22.0538956 C17.8803542,23.0025964 19.1643265,23.5343859 20.5024459,23.5307525 L20.9809679,23.5307525 C24.0883154,23.5289924 26.7144623,21.227365 27.1237099,18.1470845 C27.2111758,17.6956952 29.2728655,7.05844807 29.5546508,4.70362672 C29.6104523,4.29930576 29.6138513,3.8894746 29.5647638,3.4842837 Z" id="Path" fill="#A5AEFF"></path>
                            <path d="M8.87978891,13.0052921 C8.6779019,13.0054146 8.49631472,12.882513 8.42139447,12.6950421 C7.6165896,10.6832272 5.19142059,11.4660793 5.08905636,11.4997732 C4.92038377,11.5614376 4.7315257,11.5265673 4.5959949,11.4087354 C4.46046411,11.2909035 4.39967484,11.1087279 4.43728925,10.9331201 C4.47490365,10.7575122 4.60497855,10.6162188 4.77688244,10.5642381 C5.95355314,10.1716034 8.42016117,10.0363839 9.33769002,12.3288988 C9.39854445,12.4808472 9.38002875,12.65309 9.28826969,12.7886328 C9.19651062,12.9241757 9.04347025,13.0053486 8.87978891,13.0052921 Z M18.2532941,14.9785785 C18.0881689,14.9787972 17.9339005,14.8963293 17.8423572,14.7589023 C17.1060254,13.653862 15.5292215,14.4250223 15.5135339,14.4333101 C15.2698238,14.5551651 14.9734747,14.4563821 14.8516196,14.212672 C14.7297646,13.9689619 14.8285476,13.6726128 15.0722577,13.5507577 C15.8890996,13.1413008 17.6913514,12.7543887 18.6632937,14.2118087 C18.7641663,14.3631175 18.7736165,14.5576515 18.6878851,14.7180254 C18.6021536,14.8783992 18.4351446,14.978603 18.2532941,14.9787758 L18.2532941,14.9785785 Z" id="Shape" fill="#6B76FF"></path>
                        </g>
                    </g>
                </g>
            </g>
        </g>
    </g>
</svg>